{
    "page": 2,
    "total_results": 19829,
    "total_pages": 992,
    "results": [
                {
                "vote_count": 8604,
                "id": 263115,
                "video": false,
                "vote_average": 7.7,
                "title": "Logan",
                "popularity": 87.171697,
                "poster_path": "/gGBu0hKw9BGddG8RkRAMX7B6NDB.jpg",
                "original_language": "en",
                "original_title": "Logan",
                "genre_ids": [
                              28,
                              18,
                              878
                              ],
                "backdrop_path": "/5pAGnkFYSsFJ99ZxDIYnhQbQFXs.jpg",
                "adult": false,
                "overview": "In the near future, a weary Logan cares for an ailing Professor X in a hideout on the Mexican border. But Logan's attempts to hide from the world and his legacy are upended when a young mutant arrives, pursued by dark forces.",
                "release_date": "2017-02-28"
                },
                {
                "vote_count": 0,
                "id": 299536,
                "video": false,
                "vote_average": 0,
                "title": "Avengers: Infinity War",
                "popularity": 82.536152,
                "poster_path": "/7WsyChQLEftFiDOVTGkv3hFpyyt.jpg",
                "original_language": "en",
                "original_title": "Avengers: Infinity War",
                "genre_ids": [
                              12,
                              878,
                              14,
                              28
                              ],
                "backdrop_path": "/xmgAsda5sPNpx5ghJibJ80S7Pfx.jpg",
                "adult": false,
                "overview": "As the Avengers and their allies have continued to protect the world from threats too large for any one hero to handle, a new danger has emerged from the cosmic shadows: Thanos. A despot of intergalactic infamy, his goal is to collect all six Infinity Stones, artifacts of unimaginable power, and use them to inflict his twisted will on all of reality. Everything the Avengers have fought for has led up to this moment - the fate of Earth and existence itself has never been more uncertain.",
                "release_date": "2018-04-25"
                },
                {
                "vote_count": 15,
                "id": 499772,
                "video": false,
                "vote_average": 5.4,
                "title": "Meet Me In St. Gallen",
                "popularity": 78.219923,
                "poster_path": "/uGntNjUx6YAzbVy7RDgxWnWsdet.jpg",
                "original_language": "tl",
                "original_title": "Meet Me In St. Gallen",
                "genre_ids": [
                              18,
                              10749
                              ],
                "backdrop_path": "/4QrbczSQGZQA7BG9xMhccQI7LHm.jpg",
                "adult": false,
                "overview": "The story of Jesse and Celeste who meets at an unexpected time in their lives. They then realize their names are the same as the characters in the popular break-up romantic comedy, Celeste and Jesse Forever.",
                "release_date": "2018-02-07"
                },
                {
                "vote_count": 3904,
                "id": 335984,
                "video": false,
                "vote_average": 7.3,
                "title": "Blade Runner 2049",
                "popularity": 77.113324,
                "poster_path": "/gajva2L0rPYkEWjzgFlBXCAVBE5.jpg",
                "original_language": "en",
                "original_title": "Blade Runner 2049",
                "genre_ids": [
                              9648,
                              878,
                              53
                              ],
                "backdrop_path": "/zfWPeRgYpRjPZLGwwkfnTfaFnNh.jpg",
                "adult": false,
                "overview": "Thirty years after the events of the first film, a new blade runner, LAPD Officer K, unearths a long-buried secret that has the potential to plunge what's left of society into chaos. K's discovery leads him on a quest to find Rick Deckard, a former LAPD blade runner who has been missing for 30 years.",
                "release_date": "2017-10-04"
                },
                {
                "vote_count": 6067,
                "id": 122917,
                "video": false,
                "vote_average": 7.2,
                "title": "The Hobbit: The Battle of the Five Armies",
                "popularity": 72.811813,
                "poster_path": "/9zRzFJuaj0CHIOhAkcCcFTvyu2X.jpg",
                "original_language": "en",
                "original_title": "The Hobbit: The Battle of the Five Armies",
                "genre_ids": [
                              28,
                              12,
                              14
                              ],
                "backdrop_path": "/qhH3GyIfAnGv1pjdV3mw03qAilg.jpg",
                "adult": false,
                "overview": "Immediately after the events of The Desolation of Smaug, Bilbo and the dwarves try to defend Erebor's mountain of treasure from others who claim it: the men of the ruined Laketown and the elves of Mirkwood. Meanwhile an army of Orcs led by Azog the Defiler is marching on Erebor, fueled by the rise of the dark lord Sauron. Dwarves, elves and men must unite, and the hope for Middle-Earth falls into Bilbo's hands.",
                "release_date": "2014-12-10"
                },
                {
                "vote_count": 8590,
                "id": 99861,
                "video": false,
                "vote_average": 7.3,
                "title": "Avengers: Age of Ultron",
                "popularity": 70.279794,
                "poster_path": "/t90Y3G8UGQp0f0DrP60wRu9gfrH.jpg",
                "original_language": "en",
                "original_title": "Avengers: Age of Ultron",
                "genre_ids": [
                              28,
                              12,
                              878
                              ],
                "backdrop_path": "/rFtsE7Lhlc2jRWF7SRAU0fvrveQ.jpg",
                "adult": false,
                "overview": "When Tony Stark tries to jumpstart a dormant peacekeeping program, things go awry and Earth’s Mightiest Heroes are put to the ultimate test as the fate of the planet hangs in the balance. As the villainous Ultron emerges, it is up to The Avengers to stop him from enacting his terrible plans, and soon uneasy alliances and unexpected action pave the way for an epic and unique global adventure.",
                "release_date": "2015-04-22"
                },
                {
                "vote_count": 3370,
                "id": 353486,
                "video": false,
                "vote_average": 6.5,
                "title": "Jumanji: Welcome to the Jungle",
                "popularity": 69.525146,
                "poster_path": "/bXrZ5iHBEjH7WMidbUDQ0U2xbmr.jpg",
                "original_language": "en",
                "original_title": "Jumanji: Welcome to the Jungle",
                "genre_ids": [
                              28,
                              12,
                              35,
                              10751
                              ],
                "backdrop_path": "/rz3TAyd5kmiJmozp3GUbYeB5Kep.jpg",
                "adult": false,
                "overview": "The tables are turned as four teenagers are sucked into Jumanji's world - pitted against rhinos, black mambas and an endless variety of jungle traps and puzzles. To survive, they'll play as characters from the game.",
                "release_date": "2017-12-09"
                },
                {
                "vote_count": 2,
                "id": 483877,
                "video": false,
                "vote_average": 6,
                "title": "15+ IQ Krachoot",
                "popularity": 69.346019,
                "poster_path": "/1RxnEJzXYv5GgPszbHNsWTXPC6M.jpg",
                "original_language": "en",
                "original_title": "15 ไอคิวกระฉูด",
                "genre_ids": [
                              35
                              ],
                "backdrop_path": "/fp3Iiap1hblJfqHrBDziqgl9zzB.jpg",
                "adult": false,
                "overview": "A teenage comedy film about a young Yorkie. \"Rising\" opened the first movie on screen.  The story of fun gangs of teenage age 15+ hormones gurgling at the curiosity to try on their love and sex has spread out.",
                "release_date": "2017-08-03"
                },
                {
                "vote_count": 1248,
                "id": 300668,
                "video": false,
                "vote_average": 6.4,
                "title": "Annihilation",
                "popularity": 69.203507,
                "poster_path": "/d3qcpfNwbAMCNqWDHzPQsUYiUgS.jpg",
                "original_language": "en",
                "original_title": "Annihilation",
                "genre_ids": [
                              9648,
                              878,
                              18
                              ],
                "backdrop_path": "/5zfVNTrkhMu673zma6qhFzG01ig.jpg",
                "adult": false,
                "overview": "A biologist signs up for a dangerous, secret expedition into a mysterious zone where the laws of nature don't apply.",
                "release_date": "2018-02-22"
                },
                {
                "vote_count": 7296,
                "id": 131631,
                "video": false,
                "vote_average": 6.7,
                "title": "The Hunger Games: Mockingjay - Part 1",
                "popularity": 68.465103,
                "poster_path": "/gj282Pniaa78ZJfbaixyLXnXEDI.jpg",
                "original_language": "en",
                "original_title": "The Hunger Games: Mockingjay - Part 1",
                "genre_ids": [
                              878,
                              12,
                              53
                              ],
                "backdrop_path": "/4PwyB0ErucIANzW24Kori71J6gU.jpg",
                "adult": false,
                "overview": "Katniss Everdeen reluctantly becomes the symbol of a mass rebellion against the autocratic Capitol.",
                "release_date": "2014-11-18"
                },
                {
                "vote_count": 3220,
                "id": 98566,
                "video": false,
                "vote_average": 5.8,
                "title": "Teenage Mutant Ninja Turtles",
                "popularity": 62.975841,
                "poster_path": "/oDL2ryJ0sV2bmjgshVgJb3qzvwp.jpg",
                "original_language": "en",
                "original_title": "Teenage Mutant Ninja Turtles",
                "genre_ids": [
                              878,
                              28,
                              12,
                              14,
                              35
                              ],
                "backdrop_path": "/OqCXGt5nl1cHPeotxCDvXLLe6p.jpg",
                "adult": false,
                "overview": "The city needs heroes. Darkness has settled over New York City as Shredder and his evil Foot Clan have an iron grip on everything from the police to the politicians. The future is grim until four unlikely outcast brothers rise from the sewers and discover their destiny as Teenage Mutant Ninja Turtles. The Turtles must work with fearless reporter April and her wise-cracking cameraman Vern Fenwick to save the city and unravel Shredder's diabolical plan.",
                "release_date": "2014-08-07"
                },
                {
                "vote_count": 8856,
                "id": 22,
                "video": false,
                "vote_average": 7.5,
                "title": "Pirates of the Caribbean: The Curse of the Black Pearl",
                "popularity": 62.964029,
                "poster_path": "/tkt9xR1kNX5R9rCebASKck44si2.jpg",
                "original_language": "en",
                "original_title": "Pirates of the Caribbean: The Curse of the Black Pearl",
                "genre_ids": [
                              12,
                              14,
                              28
                              ],
                "backdrop_path": "/8AUQ7YlJJA9C8kWk8P4YNHIcFDE.jpg",
                "adult": false,
                "overview": "Jack Sparrow, a freewheeling 17th-century pirate, quarrels with a rival pirate bent on pillaging Port Royal. When the governor's daughter is kidnapped, Sparrow decides to help the girl's love save her.",
                "release_date": "2003-07-09"
                },
                {
                "vote_count": 7397,
                "id": 210577,
                "video": false,
                "vote_average": 7.9,
                "title": "Gone Girl",
                "popularity": 62.491813,
                "poster_path": "/gdiLTof3rbPDAmPaCf4g6op46bj.jpg",
                "original_language": "en",
                "original_title": "Gone Girl",
                "genre_ids": [
                              9648,
                              53,
                              18
                              ],
                "backdrop_path": "/bt6DhdALyhf90gReozoQ0y3R3vZ.jpg",
                "adult": false,
                "overview": "With his wife's disappearance having become the focus of an intense media circus, a man sees the spotlight turned on him when it's suspected that he may not be innocent.",
                "release_date": "2014-10-01"
                },
                {
                "vote_count": 1761,
                "id": 316029,
                "video": false,
                "vote_average": 8,
                "title": "The Greatest Showman",
                "popularity": 62.399687,
                "poster_path": "/b9CeobiihCx1uG1tpw8hXmpi7nm.jpg",
                "original_language": "en",
                "original_title": "The Greatest Showman",
                "genre_ids": [
                              18,
                              10402
                              ],
                "backdrop_path": "/zpq404Sk7qQ7N4x3xOeNgp74GtU.jpg",
                "adult": false,
                "overview": "The story of American showman P.T. Barnum, founder of the circus that became the famous traveling Ringling Bros. and Barnum & Bailey Circus.",
                "release_date": "2017-12-20"
                },
                {
                "vote_count": 4891,
                "id": 228150,
                "video": false,
                "vote_average": 7.4,
                "title": "Fury",
                "popularity": 60.596104,
                "poster_path": "/pfte7wdMobMF4CVHuOxyu6oqeeA.jpg",
                "original_language": "en",
                "original_title": "Fury",
                "genre_ids": [
                              10752,
                              18,
                              28
                              ],
                "backdrop_path": "/pKawqrtCBMmxarft7o1LbEynys7.jpg",
                "adult": false,
                "overview": "Last months of World War II in April 1945. As the Allies make their final push in the European Theater, a battle-hardened U.S. Army sergeant in the 2nd Armored Division named Wardaddy commands a Sherman tank called \"Fury\" and its five-man crew on a deadly mission behind enemy lines. Outnumbered and outgunned, Wardaddy and his men face overwhelming odds in their heroic attempts to strike at the heart of Nazi Germany.",
                "release_date": "2014-10-15"
                },
                {
                "vote_count": 8521,
                "id": 10195,
                "video": false,
                "vote_average": 6.6,
                "title": "Thor",
                "popularity": 59.881974,
                "poster_path": "/bIuOWTtyFPjsFDevqvF3QrD1aun.jpg",
                "original_language": "en",
                "original_title": "Thor",
                "genre_ids": [
                              12,
                              14,
                              28
                              ],
                "backdrop_path": "/LvmmDZxkTDqp0DX7mUo621ahdX.jpg",
                "adult": false,
                "overview": "Against his father Odin's will, The Mighty Thor - a powerful but arrogant warrior god - recklessly reignites an ancient war. Thor is cast down to Earth and forced to live among humans as punishment. Once here, Thor learns what it takes to be a true hero when the most dangerous villain of his world sends the darkest forces of Asgard to invade Earth.",
                "release_date": "2011-04-21"
                },
                {
                "vote_count": 5404,
                "id": 206647,
                "video": false,
                "vote_average": 6.3,
                "title": "Spectre",
                "popularity": 59.630805,
                "poster_path": "/hE24GYddaxB9MVZl1CaiI86M3kp.jpg",
                "original_language": "en",
                "original_title": "Spectre",
                "genre_ids": [
                              28,
                              12,
                              80
                              ],
                "backdrop_path": "/wVTYlkKPKrljJfugXN7UlLNjtuJ.jpg",
                "adult": false,
                "overview": "A cryptic message from Bond’s past sends him on a trail to uncover a sinister organization. While M battles political forces to keep the secret service alive, Bond peels back the layers of deceit to reveal the terrible truth behind SPECTRE.",
                "release_date": "2015-10-26"
                },
                {
                "vote_count": 3179,
                "id": 176,
                "video": false,
                "vote_average": 7.3,
                "title": "Saw",
                "popularity": 58.566685,
                "poster_path": "/dHYvIgsax8ZFgkz1OslE4V6Pnf5.jpg",
                "original_language": "en",
                "original_title": "Saw",
                "genre_ids": [
                              27,
                              9648,
                              80
                              ],
                "backdrop_path": "/fLL6WfUXvdQee1fD4xuzNnWfVBk.jpg",
                "adult": false,
                "overview": "Obsessed with teaching his victims the value of life, a deranged, sadistic serial killer abducts the morally wayward. Once captured, they must face impossible choices in a horrific game of survival. The victims must fight to win their lives back, or die trying...",
                "release_date": "2004-10-01"
                },
                {
                "vote_count": 71,
                "id": 447332,
                "video": false,
                "vote_average": 7.4,
                "title": "A Quiet Place",
                "popularity": 57.997203,
                "poster_path": "/nAU74GmpUk7t5iklEp3bufwDq4n.jpg",
                "original_language": "en",
                "original_title": "A Quiet Place",
                "genre_ids": [
                              18,
                              27,
                              53
                              ],
                "backdrop_path": "/roYyPiQDQKmIKUEhO912693tSja.jpg",
                "adult": false,
                "overview": "A family is forced to live in silence while hiding from creatures that hunt by sound.",
                "release_date": "2018-04-05"
                },
                {
                "vote_count": 2647,
                "id": 392044,
                "video": false,
                "vote_average": 6.7,
                "title": "Murder on the Orient Express",
                "popularity": 57.58923,
                "poster_path": "/iBlfxlw8qwtUS0R8YjIU7JtM6LM.jpg",
                "original_language": "en",
                "original_title": "Murder on the Orient Express",
                "genre_ids": [
                              80,
                              18,
                              9648
                              ],
                "backdrop_path": "/2J283YNxKhxAqHeVegUJ5mzLfGb.jpg",
                "adult": false,
                "overview": "Genius Belgian detective Hercule Poirot investigates the murder of an American tycoon aboard the Orient Express train.",
                "release_date": "2017-11-03"
                }
                ]
}
